Instances/backbones/ecai10/2dlx_cc_mc_ex_bp_f2_bug001.cnf 10.67 1765
Instances/backbones/ecai10/2dlx_cc_mc_ex_bp_f2_bug002.cnf 15.01 1765
Instances/backbones/ecai10/2dlx_cc_mc_ex_bp_f2_bug003.cnf 0.76 2183
Instances/backbones/ecai10/2dlx_cc_mc_ex_bp_f2_bug004.cnf 1.17 2129
Instances/backbones/ecai10/2dlx_cc_mc_ex_bp_f2_bug005.cnf 1.44 2156
Instances/backbones/ecai10/2dlx_cc_mc_ex_bp_f2_bug006.cnf 1.10 1421
Instances/backbones/ecai10/2dlx_cc_mc_ex_bp_f2_bug007.cnf 0.72 1454
Instances/backbones/ecai10/2dlx_cc_mc_ex_bp_f2_bug008.cnf 1.20 1679
Instances/backbones/ecai10/2dlx_cc_mc_ex_bp_f2_bug009.cnf 2.02 1680
Instances/backbones/ecai10/3blocks.cnf 0.03 152
Instances/backbones/ecai10/4blocks.cnf 13.56 289
Instances/backbones/ecai10/4blocksb.cnf 0.02 354
Instances/backbones/ecai10/anomaly.cnf 0.00 48
Instances/backbones/ecai10/AProVE09-01.cnf 10.96 43251
Instances/backbones/ecai10/AProVE09-03.cnf 4.45 30648
Instances/backbones/ecai10/AProVE09-05.cnf 8.68 11199
Instances/backbones/ecai10/AProVE09-06.cnf 1800 0
Instances/backbones/ecai10/AProVE09-07.cnf 71.10 6634
Instances/backbones/ecai10/AProVE09-08.cnf 19.00 7627
Instances/backbones/ecai10/AProVE09-10.cnf 10.31 52042
Instances/backbones/ecai10/AProVE09-11.cnf 1.45 10203
Instances/backbones/ecai10/AProVE09-12.cnf 0.72 20890
Instances/backbones/ecai10/AProVE09-13.cnf 0.08 4906
Instances/backbones/ecai10/AProVE09-15.cnf 1800 0
Instances/backbones/ecai10/AProVE09-17.cnf 1800 0
Instances/backbones/ecai10/AProVE09-19.cnf 1800 0
Instances/backbones/ecai10/AProVE09-20.cnf 1800 0
Instances/backbones/ecai10/AProVE09-21.cnf 1800 0
Instances/backbones/ecai10/AProVE09-22.cnf 23.79 5264
Instances/backbones/ecai10/AProVE09-24.cnf 1313.85 11025
Instances/backbones/ecai10/AProVE09-25.cnf 95.23 20757
Instances/backbones/ecai10/bw_large.b.cnf 0.00 0
Instances/backbones/ecai10/bw_large.c.cnf 0.04 0
Instances/backbones/ecai10/bw_large.d.cnf 0.24 0
Instances/backbones/ecai10/clauses-2.cnf 8.73 67456
Instances/backbones/ecai10/clauses-4.cnf 1800 0
Instances/backbones/ecai10/clauses-6.cnf 1800 0
Instances/backbones/ecai10/clauses-8.cnf 1800 0
Instances/backbones/ecai10/depots3_v01a.renamed-as.sat05-3950.cnf 0.04 1238
Instances/backbones/ecai10/depots3_v01a.shuffled-as.sat05-4017.cnf 0.04 1238
Instances/backbones/ecai10/driverlog8_ks99i.renamed-as.sat05-3958.cnf 0.05 852
Instances/backbones/ecai10/driverlog8_ks99i.shuffled-as.sat05-4025.cnf 0.06 852
Instances/backbones/ecai10/f7hh.14.cnf 1.30 675
Instances/backbones/ecai10/f7hh.15.cnf 1.35 704
Instances/backbones/ecai10/f8h_11.cnf 0.08 677
Instances/backbones/ecai10/facts7h.cnf 0.10 456
Instances/backbones/ecai10/facts7hh.13-simp.cnf 2.30 519
Instances/backbones/ecai10/facts7hh.13-simp.simple.cnf 2.27 519
Instances/backbones/ecai10/facts7hh.13.cnf 3.87 673
Instances/backbones/ecai10/facts7hh.13.simple.cnf 3.18 666
Instances/backbones/ecai10/facts7hha.13.cnf 1.41 565
Instances/backbones/ecai10/facts8.13.cnf 0.29 529
Instances/backbones/ecai10/facts8h.12.cnf 0.40 552
Instances/backbones/ecai10/ferry8_ks99i.renamed-as.sat05-4005.cnf 1800 0
Instances/backbones/ecai10/ferry8_v01i.renamed-as.sat05-4007.cnf 1800 0
Instances/backbones/ecai10/grieu-vmpc-s05-25.cnf 50.50 625
Instances/backbones/ecai10/grieu-vmpc-s05-27.cnf 487.17 677
Instances/backbones/ecai10/grieu-vmpc-s05-28.cnf 1315.84 730
Instances/backbones/ecai10/grieu-vmpc-s05-34.cnf 1800 0
Instances/backbones/ecai10/hanoi4.cnf 0.04 718
Instances/backbones/ecai10/hanoi5.cnf 0.70 1931
Instances/backbones/ecai10/huge-r.cnf 0.00 927
Instances/backbones/ecai10/huge.cnf 0.00 459
Instances/backbones/ecai10/IBM_FV_2004_rule_batch_01_SAT_dat.k20.cnf 99.24 5557
Instances/backbones/ecai10/IBM_FV_2004_rule_batch_01_SAT_dat.k30.cnf 1800 0
Instances/backbones/ecai10/IBM_FV_2004_rule_batch_02_2_SAT_dat.k20.cnf 3.11 2348
Instances/backbones/ecai10/IBM_FV_2004_rule_batch_02_2_SAT_dat.k50.cnf 72.97 3284
Instances/backbones/ecai10/IBM_FV_2004_rule_batch_03_SAT_dat.k35.cnf 80.52 20421
Instances/backbones/ecai10/IBM_FV_2004_rule_batch_03_SAT_dat.k50.cnf 1800 0
Instances/backbones/ecai10/IBM_FV_2004_rule_batch_04_SAT_dat.k25.cnf 0.97 21685
Instances/backbones/ecai10/IBM_FV_2004_rule_batch_04_SAT_dat.k30.cnf 2.86 23866
Instances/backbones/ecai10/IBM_FV_2004_rule_batch_05_SAT_dat.k35.cnf 5.92 51182
Instances/backbones/ecai10/IBM_FV_2004_rule_batch_05_SAT_dat.k50.cnf 18.36 73450
Instances/backbones/ecai10/IBM_FV_2004_rule_batch_06_SAT_dat.k35.cnf 108.47 21743
Instances/backbones/ecai10/IBM_FV_2004_rule_batch_06_SAT_dat.k40.cnf 1709.79 22125
Instances/backbones/ecai10/IBM_FV_2004_rule_batch_19_SAT_dat.k30.cnf 47.37 21211
Instances/backbones/ecai10/IBM_FV_2004_rule_batch_19_SAT_dat.k40.cnf 1800 0
Instances/backbones/ecai10/IBM_FV_2004_rule_batch_1_02_3_SAT_dat.k20.cnf 11.88 2747
Instances/backbones/ecai10/IBM_FV_2004_rule_batch_1_02_3_SAT_dat.k50.cnf 1800 0
Instances/backbones/ecai10/IBM_FV_2004_rule_batch_1_16_2_SAT_dat.k20.cnf 0.24 2202
Instances/backbones/ecai10/IBM_FV_2004_rule_batch_1_16_2_SAT_dat.k50.cnf 5.97 3792
Instances/backbones/ecai10/IBM_FV_2004_rule_batch_2_16_2_SAT_dat.k20.cnf 0.22 2202
Instances/backbones/ecai10/IBM_FV_2004_rule_batch_2_16_2_SAT_dat.k50.cnf 5.86 3792
Instances/backbones/ecai10/IBM_FV_2004_rule_batch_3_02_3_SAT_dat.k20.cnf 14.50 2754
Instances/backbones/ecai10/IBM_FV_2004_rule_batch_3_02_3_SAT_dat.k50.cnf 1800 0
Instances/backbones/ecai10/IBM_FV_2004_rule_batch_3_16_2_SAT_dat.k20.cnf 0.28 2202
Instances/backbones/ecai10/IBM_FV_2004_rule_batch_3_16_2_SAT_dat.k50.cnf 18.04 3792
Instances/backbones/ecai10/IBM_FV_2004_rule_batch_4_16_2_SAT_dat.k20.cnf 0.36 3589
Instances/backbones/ecai10/IBM_FV_2004_rule_batch_4_16_2_SAT_dat.k50.cnf 7.24 6529
Instances/backbones/ecai10/IBM_FV_2004_rule_batch_5_02_3_SAT_dat.k20.cnf 12.78 2759
Instances/backbones/ecai10/IBM_FV_2004_rule_batch_5_02_3_SAT_dat.k50.cnf 1800 0
Instances/backbones/ecai10/IBM_FV_2004_rule_batch_5_16_2_SAT_dat.k20.cnf 0.35 3547
Instances/backbones/ecai10/IBM_FV_2004_rule_batch_5_16_2_SAT_dat.k50.cnf 6.75 6487
Instances/backbones/ecai10/maris-s03-gripper11.cnf 1800 0
Instances/backbones/ecai10/medium.cnf 0.00 97
Instances/backbones/ecai10/narain-vpn-clauses-6.cnf 1800 0
Instances/backbones/ecai10/rovers5_ks99i.renamed-as.sat05-3974.cnf 86.40 340
Instances/backbones/ecai10/rovers5_v01a.renamed-as.sat05-3981.cnf 2.84 254
Instances/backbones/ecai10/satellite2_v01i.shuffled-as.sat05-4055.cnf 0.68 683
Instances/backbones/ecai10/satellite4_v01a.shuffled-as.sat05-4058.cnf 0.62 407
Instances/backbones/misc/139442p0neg.cnf 0.04 3326
Instances/backbones/misc/139442p1.cnf 0.04 3296
Instances/backbones/misc/139442p1neg.cnf 0.04 3304
Instances/backbones/misc/139442p22.cnf 0.10 5097
Instances/backbones/misc/139442p23.cnf 0.09 5135
Instances/backbones/misc/139442p24.cnf 0.08 5173
Instances/backbones/misc/139442p5.cnf 0.04 3376
Instances/backbones/misc/139442p5neg.cnf 0.05 3361
Instances/backbones/misc/139442p6.cnf 0.04 3436
Instances/backbones/misc/139442p6neg.cnf 0.04 3451
Instances/backbones/misc/139443p0neg.cnf 0.21 5077
Instances/backbones/misc/139443p1.cnf 0.21 5047
Instances/backbones/misc/139443p1neg.cnf 0.22 5055
Instances/backbones/misc/139443p22.cnf 0.47 7777
Instances/backbones/misc/139443p23.cnf 0.46 7815
Instances/backbones/misc/139443p24.cnf 0.42 7853
Instances/backbones/misc/139443p5.cnf 0.22 5127
Instances/backbones/misc/139443p5neg.cnf 0.22 5112
Instances/backbones/misc/139443p6.cnf 0.20 5187
Instances/backbones/misc/139443p6neg.cnf 0.20 5202
Instances/backbones/misc/139444p0neg.cnf 0.38 6356
Instances/backbones/misc/139444p1.cnf 0.35 6326
Instances/backbones/misc/139444p1neg.cnf 0.40 6334
Instances/backbones/misc/139444p22.cnf 0.72 9869
Instances/backbones/misc/139444p23.cnf 0.80 9907
Instances/backbones/misc/139444p24.cnf 0.79 9945
Instances/backbones/misc/139444p5.cnf 0.36 6406
Instances/backbones/misc/139444p5neg.cnf 0.34 6391
Instances/backbones/misc/139444p6.cnf 0.37 6466
Instances/backbones/misc/139444p6neg.cnf 0.36 6481
Instances/backbones/misc/139452p0neg.cnf 0.18 4432
Instances/backbones/misc/139452p1.cnf 0.18 4402
Instances/backbones/misc/139452p1neg.cnf 0.18 4411
Instances/backbones/misc/139452p22.cnf 0.33 6747
Instances/backbones/misc/139452p23.cnf 0.35 6785
Instances/backbones/misc/139452p24.cnf 0.36 6823
Instances/backbones/misc/139452p5.cnf 0.18 4482
Instances/backbones/misc/139452p5neg.cnf 0.17 4467
Instances/backbones/misc/139452p6.cnf 0.17 4542
Instances/backbones/misc/139452p6neg.cnf 0.19 4558
Instances/backbones/misc/139453p0neg.cnf 0.76 6781
Instances/backbones/misc/139453p1.cnf 0.80 6751
Instances/backbones/misc/139453p1neg.cnf 0.89 6760
Instances/backbones/misc/139453p22.cnf 1.72 10374
Instances/backbones/misc/139453p23.cnf 1.67 10412
Instances/backbones/misc/139453p24.cnf 1.63 10450
Instances/backbones/misc/139453p5.cnf 0.87 6831
Instances/backbones/misc/139453p5neg.cnf 0.80 6816
Instances/backbones/misc/139453p6.cnf 0.85 6891
Instances/backbones/misc/139453p6neg.cnf 0.87 6907
Instances/backbones/misc/139454p0neg.cnf 1.44 8560
Instances/backbones/misc/139454p1.cnf 1.37 8530
Instances/backbones/misc/139454p1neg.cnf 1.56 8539
Instances/backbones/misc/139454p22.cnf 2.74 13306
Instances/backbones/misc/139454p23.cnf 2.68 13344
Instances/backbones/misc/139454p24.cnf 2.53 13382
Instances/backbones/misc/139454p5.cnf 1.52 8610
Instances/backbones/misc/139454p5neg.cnf 1.50 8595
Instances/backbones/misc/139454p6.cnf 1.55 8670
Instances/backbones/misc/139454p6neg.cnf 1.46 8686
Instances/backbones/misc/139462p0neg.cnf 1.37 5553
Instances/backbones/misc/139462p1.cnf 1.40 5523
Instances/backbones/misc/139462p1neg.cnf 1.30 5532
Instances/backbones/misc/139462p22.cnf 2.39 8449
Instances/backbones/misc/139462p23.cnf 2.20 8487
Instances/backbones/misc/139462p24.cnf 2.24 8525
Instances/backbones/misc/139462p5.cnf 1.40 5603
Instances/backbones/misc/139462p5neg.cnf 1.29 5588
Instances/backbones/misc/139462p6.cnf 1.40 5663
Instances/backbones/misc/139462p6neg.cnf 1.34 5679
Instances/backbones/misc/139463p0neg.cnf 5.15 8571
Instances/backbones/misc/139463p1.cnf 4.58 8541
Instances/backbones/misc/139463p1neg.cnf 4.07 8550
Instances/backbones/misc/139463p22.cnf 7.42 13143
Instances/backbones/misc/139463p23.cnf 7.48 13181
Instances/backbones/misc/139463p24.cnf 9.98 13219
Instances/backbones/misc/139463p5.cnf 4.46 8621
Instances/backbones/misc/139463p5neg.cnf 4.39 8606
Instances/backbones/misc/139463p6.cnf 4.36 8681
Instances/backbones/misc/139463p6neg.cnf 4.76 8697
Instances/backbones/misc/139464p0neg.cnf 8.17 10929
Instances/backbones/misc/139464p1.cnf 8.71 10899
Instances/backbones/misc/139464p1neg.cnf 7.80 10908
Instances/backbones/misc/139464p22.cnf 14.31 17051
Instances/backbones/misc/139464p23.cnf 15.44 17089
Instances/backbones/misc/139464p24.cnf 13.46 17127
Instances/backbones/misc/139464p5.cnf 8.34 10979
Instances/backbones/misc/139464p5neg.cnf 8.15 10964
Instances/backbones/misc/139464p6.cnf 8.63 11039
Instances/backbones/misc/139464p6neg.cnf 8.12 11055
Instances/backbones/misc/2dlx_cc_mc_ex_bp_f2_bug010.cnf 3.95 10123
Instances/backbones/misc/2dlx_cc_mc_ex_bp_f2_bug011.cnf 2.74 6966
Instances/backbones/misc/2dlx_cc_mc_ex_bp_f2_bug012.cnf 5.01 9379
Instances/backbones/misc/2dlx_cc_mc_ex_bp_f2_bug013.cnf 2.27 8392
Instances/backbones/misc/2dlx_cc_mc_ex_bp_f2_bug014.cnf 9.81 10146
Instances/backbones/misc/2dlx_cc_mc_ex_bp_f2_bug015.cnf 13.94 27577
Instances/backbones/misc/2dlx_cc_mc_ex_bp_f2_bug016.cnf 1.22 9363
Instances/backbones/misc/2dlx_cc_mc_ex_bp_f2_bug017.cnf 7.21 8715
Instances/backbones/misc/2dlx_cc_mc_ex_bp_f2_bug018.cnf 1.15 8977
Instances/backbones/misc/2dlx_cc_mc_ex_bp_f2_bug019.cnf 0.78 9419
Instances/backbones/misc/2dlx_cc_mc_ex_bp_f2_bug020.cnf 3.83 7551
Instances/backbones/misc/2dlx_cc_mc_ex_bp_f2_bug021.cnf 1.46 8557
Instances/backbones/misc/2dlx_cc_mc_ex_bp_f2_bug022.cnf 2.22 8874
Instances/backbones/misc/2dlx_cc_mc_ex_bp_f2_bug023.cnf 1.33 9616
Instances/backbones/misc/2dlx_cc_mc_ex_bp_f2_bug024.cnf 1.28 9227
Instances/backbones/misc/2dlx_cc_mc_ex_bp_f2_bug025.cnf 2.40 8885
Instances/backbones/misc/2dlx_cc_mc_ex_bp_f2_bug026.cnf 1.82 9081
Instances/backbones/misc/2dlx_cc_mc_ex_bp_f2_bug027.cnf 0.97 9673
Instances/backbones/misc/2dlx_cc_mc_ex_bp_f2_bug028.cnf 7.22 15599
Instances/backbones/misc/2dlx_cc_mc_ex_bp_f2_bug029.cnf 1.01 9955
Instances/backbones/misc/2dlx_cc_mc_ex_bp_f2_bug030.cnf 1.08 9988
Instances/backbones/misc/2dlx_cc_mc_ex_bp_f2_bug031.cnf 5.20 8571
Instances/backbones/misc/2dlx_cc_mc_ex_bp_f2_bug032.cnf 10.84 8760
Instances/backbones/misc/2dlx_cc_mc_ex_bp_f2_bug033.cnf 1.76 8961
Instances/backbones/misc/2dlx_cc_mc_ex_bp_f2_bug034.cnf 2.67 8928
Instances/backbones/misc/2dlx_cc_mc_ex_bp_f2_bug035.cnf 7.10 8834
Instances/backbones/misc/2dlx_cc_mc_ex_bp_f2_bug036.cnf 13.51 8899
Instances/backbones/misc/2dlx_cc_mc_ex_bp_f2_bug037.cnf 1.31 9541
Instances/backbones/misc/2dlx_cc_mc_ex_bp_f2_bug038.cnf 1.35 9445
Instances/backbones/misc/2dlx_cc_mc_ex_bp_f2_bug039.cnf 1.48 9496
Instances/backbones/misc/2dlx_cc_mc_ex_bp_f2_bug040.cnf 1.25 9687
Instances/backbones/misc/2dlx_cc_mc_ex_bp_f2_bug041.cnf 1.56 9217
Instances/backbones/misc/2dlx_cc_mc_ex_bp_f2_bug042.cnf 10.50 8790
Instances/backbones/misc/2dlx_cc_mc_ex_bp_f2_bug043.cnf 1.22 9467
Instances/backbones/misc/2dlx_cc_mc_ex_bp_f2_bug044.cnf 1.60 9636
Instances/backbones/misc/2dlx_cc_mc_ex_bp_f2_bug045.cnf 1.75 9239
Instances/backbones/misc/2dlx_cc_mc_ex_bp_f2_bug046.cnf 2.00 9209
Instances/backbones/misc/2dlx_cc_mc_ex_bp_f2_bug047.cnf 19.55 18285
Instances/backbones/misc/2dlx_cc_mc_ex_bp_f2_bug048.cnf 6.30 13561
Instances/backbones/misc/2dlx_cc_mc_ex_bp_f2_bug049.cnf 0.06 2475
Instances/backbones/misc/2dlx_cc_mc_ex_bp_f2_bug050.cnf 2.45 8843
Instances/backbones/misc/2dlx_cc_mc_ex_bp_f2_bug051.cnf 0.57 4980
Instances/backbones/misc/2dlx_cc_mc_ex_bp_f2_bug052.cnf 2.63 9362
Instances/backbones/misc/2dlx_cc_mc_ex_bp_f2_bug053.cnf 3.42 9821
Instances/backbones/misc/2dlx_cc_mc_ex_bp_f2_bug054.cnf 2.42 5949
Instances/backbones/misc/2dlx_cc_mc_ex_bp_f2_bug055.cnf 0.62 4973
Instances/backbones/misc/2dlx_cc_mc_ex_bp_f2_bug056.cnf 1.37 10488
Instances/backbones/misc/2dlx_cc_mc_ex_bp_f2_bug057.cnf 1.11 10758
Instances/backbones/misc/2dlx_cc_mc_ex_bp_f2_bug058.cnf 6.55 9443
Instances/backbones/misc/2dlx_cc_mc_ex_bp_f2_bug059.cnf 0.94 9367
Instances/backbones/misc/2dlx_cc_mc_ex_bp_f2_bug060.cnf 1.81 6307
Instances/backbones/misc/2dlx_cc_mc_ex_bp_f2_bug061.cnf 3.18 7912
Instances/backbones/misc/2dlx_cc_mc_ex_bp_f2_bug062.cnf 1.07 10214
Instances/backbones/misc/2dlx_cc_mc_ex_bp_f2_bug063.cnf 1.76 10227
Instances/backbones/misc/2dlx_cc_mc_ex_bp_f2_bug064.cnf 1.24 9514
Instances/backbones/misc/2dlx_cc_mc_ex_bp_f2_bug065.cnf 13.10 9191
Instances/backbones/misc/2dlx_cc_mc_ex_bp_f2_bug066.cnf 6.72 9485
Instances/backbones/misc/2dlx_cc_mc_ex_bp_f2_bug067.cnf 1.21 10384
Instances/backbones/misc/2dlx_cc_mc_ex_bp_f2_bug068.cnf 1.09 10560
Instances/backbones/misc/2dlx_cc_mc_ex_bp_f2_bug069.cnf 1.14 10241
Instances/backbones/misc/2dlx_cc_mc_ex_bp_f2_bug070.cnf 1.32 9741
Instances/backbones/misc/2dlx_cc_mc_ex_bp_f2_bug071.cnf 1.41 9656
Instances/backbones/misc/2dlx_cc_mc_ex_bp_f2_bug072.cnf 4.37 9786
Instances/backbones/misc/2dlx_cc_mc_ex_bp_f2_bug073.cnf 1.05 10036
Instances/backbones/misc/2dlx_cc_mc_ex_bp_f2_bug074.cnf 1.26 9845
Instances/backbones/misc/2dlx_cc_mc_ex_bp_f2_bug075.cnf 2.56 9185
Instances/backbones/misc/2dlx_cc_mc_ex_bp_f2_bug076.cnf 4.21 9806
Instances/backbones/misc/2dlx_cc_mc_ex_bp_f2_bug077.cnf 2.23 9808
Instances/backbones/misc/2dlx_cc_mc_ex_bp_f2_bug078.cnf 3.73 9220
Instances/backbones/misc/2dlx_cc_mc_ex_bp_f2_bug079.cnf 2.45 8956
Instances/backbones/misc/2dlx_cc_mc_ex_bp_f2_bug080.cnf 1.34 9087
Instances/backbones/misc/2dlx_cc_mc_ex_bp_f2_bug081.cnf 3.22 8010
Instances/backbones/misc/2dlx_cc_mc_ex_bp_f2_bug082.cnf 2.68 7031
Instances/backbones/misc/2dlx_cc_mc_ex_bp_f2_bug083.cnf 2.92 7905
Instances/backbones/misc/2dlx_cc_mc_ex_bp_f2_bug084.cnf 3.87 7885
Instances/backbones/misc/2dlx_cc_mc_ex_bp_f2_bug085.cnf 18.65 8099
Instances/backbones/misc/2dlx_cc_mc_ex_bp_f2_bug086.cnf 3.76 8051
Instances/backbones/misc/2dlx_cc_mc_ex_bp_f2_bug087.cnf 6.34 8766
Instances/backbones/misc/2dlx_cc_mc_ex_bp_f2_bug088.cnf 6.02 8566
Instances/backbones/misc/2dlx_cc_mc_ex_bp_f2_bug089.cnf 4.03 8552
Instances/backbones/misc/2dlx_cc_mc_ex_bp_f2_bug090.cnf 1.17 9145
Instances/backbones/misc/2dlx_cc_mc_ex_bp_f2_bug091.cnf 4.12 10172
Instances/backbones/misc/2dlx_cc_mc_ex_bp_f2_bug092.cnf 4.17 9973
Instances/backbones/misc/2dlx_cc_mc_ex_bp_f2_bug093.cnf 2.06 7050
Instances/backbones/misc/2dlx_cc_mc_ex_bp_f2_bug094.cnf 2.54 8450
Instances/backbones/misc/2dlx_cc_mc_ex_bp_f2_bug095.cnf 4.71 9621
Instances/backbones/misc/2dlx_cc_mc_ex_bp_f2_bug096.cnf 2.12 9509
Instances/backbones/misc/2dlx_cc_mc_ex_bp_f2_bug097.cnf 2.00 9531
Instances/backbones/misc/2dlx_cc_mc_ex_bp_f2_bug098.cnf 8.16 7273
Instances/backbones/misc/2dlx_cc_mc_ex_bp_f2_bug099.cnf 0.01 586
Instances/backbones/misc/2dlx_cc_mc_ex_bp_f2_bug100.cnf 1.26 10329
Instances/backbones/misc/9vliw_bp_mc_bug001.cnf 119.40 92058
Instances/backbones/misc/9vliw_bp_mc_bug002.cnf 100.34 91290
Instances/backbones/misc/9vliw_bp_mc_bug003.cnf 103.94 92032
Instances/backbones/misc/9vliw_bp_mc_bug004.cnf 130.58 92062
Instances/backbones/misc/9vliw_bp_mc_bug005.cnf 87.03 94222
Instances/backbones/misc/9vliw_bp_mc_bug006.cnf 67.40 94965
Instances/backbones/misc/9vliw_bp_mc_bug007.cnf 91.37 94405
Instances/backbones/misc/9vliw_bp_mc_bug008.cnf 67.35 96002
Instances/backbones/misc/9vliw_bp_mc_bug009.cnf 107.80 90108
Instances/backbones/misc/9vliw_bp_mc_bug010.cnf 79.73 93529
Instances/backbones/misc/9vliw_bp_mc_bug011.cnf 235.09 89335
Instances/backbones/misc/9vliw_bp_mc_bug012.cnf 76.64 91212
Instances/backbones/misc/9vliw_bp_mc_bug013.cnf 69.26 94448
Instances/backbones/misc/9vliw_bp_mc_bug014.cnf 98.47 93411
Instances/backbones/misc/9vliw_bp_mc_bug015.cnf 64.83 95501
Instances/backbones/misc/9vliw_bp_mc_bug016.cnf 80.14 95346
Instances/backbones/misc/9vliw_bp_mc_bug017.cnf 62.43 95060
Instances/backbones/misc/9vliw_bp_mc_bug018.cnf 122.33 105556
Instances/backbones/misc/9vliw_bp_mc_bug019.cnf 64.90 95661
Instances/backbones/misc/9vliw_bp_mc_bug020.cnf 74.75 95065
Instances/backbones/misc/9vliw_bp_mc_bug021.cnf 69.22 95434
Instances/backbones/misc/9vliw_bp_mc_bug022.cnf 63.63 95033
Instances/backbones/misc/9vliw_bp_mc_bug023.cnf 92.30 91694
Instances/backbones/misc/9vliw_bp_mc_bug024.cnf 66.32 94975
Instances/backbones/misc/9vliw_bp_mc_bug025.cnf 68.46 94930
Instances/backbones/misc/9vliw_bp_mc_bug026.cnf 146.40 101377
Instances/backbones/misc/9vliw_bp_mc_bug027.cnf 70.24 95507
Instances/backbones/misc/9vliw_bp_mc_bug028.cnf 125.55 91852
Instances/backbones/misc/9vliw_bp_mc_bug029.cnf 115.69 112696
Instances/backbones/misc/9vliw_bp_mc_bug030.cnf 87.82 95554
Instances/backbones/misc/9vliw_bp_mc_bug031.cnf 73.73 90729
Instances/backbones/misc/9vliw_bp_mc_bug032.cnf 143.80 88711
Instances/backbones/misc/9vliw_bp_mc_bug033.cnf 66.09 95765
Instances/backbones/misc/9vliw_bp_mc_bug034.cnf 100.86 102539
Instances/backbones/misc/9vliw_bp_mc_bug035.cnf 64.48 94786
Instances/backbones/misc/9vliw_bp_mc_bug036.cnf 74.79 95454
Instances/backbones/misc/9vliw_bp_mc_bug037.cnf 58.80 87795
Instances/backbones/misc/9vliw_bp_mc_bug038.cnf 79.91 98622
Instances/backbones/misc/9vliw_bp_mc_bug039.cnf 65.63 99491
Instances/backbones/misc/9vliw_bp_mc_bug040.cnf 1800 0
Instances/backbones/misc/9vliw_bp_mc_bug041.cnf 81.34 93789
Instances/backbones/misc/9vliw_bp_mc_bug042.cnf 83.16 94139
Instances/backbones/misc/9vliw_bp_mc_bug043.cnf 105.62 93677
Instances/backbones/misc/9vliw_bp_mc_bug044.cnf 83.20 93712
Instances/backbones/misc/9vliw_bp_mc_bug045.cnf 91.88 93892
Instances/backbones/misc/9vliw_bp_mc_bug046.cnf 84.62 93905
Instances/backbones/misc/9vliw_bp_mc_bug047.cnf 77.08 93973
Instances/backbones/misc/9vliw_bp_mc_bug048.cnf 74.53 96796
Instances/backbones/misc/9vliw_bp_mc_bug049.cnf 97.46 96324
Instances/backbones/misc/9vliw_bp_mc_bug050.cnf 75.57 94247
Instances/backbones/misc/9vliw_bp_mc_bug051.cnf 342.76 143264
Instances/backbones/misc/9vliw_bp_mc_bug052.cnf 115.29 91638
Instances/backbones/misc/9vliw_bp_mc_bug053.cnf 78.43 94171
Instances/backbones/misc/9vliw_bp_mc_bug054.cnf 75.32 94333
Instances/backbones/misc/9vliw_bp_mc_bug055.cnf 306.69 91949
Instances/backbones/misc/9vliw_bp_mc_bug056.cnf 111.14 91895
Instances/backbones/misc/9vliw_bp_mc_bug057.cnf 128.60 91875
Instances/backbones/misc/9vliw_bp_mc_bug058.cnf 100.50 91347
Instances/backbones/misc/9vliw_bp_mc_bug059.cnf 217.03 91241
Instances/backbones/misc/9vliw_bp_mc_bug060.cnf 133.93 91950
Instances/backbones/misc/9vliw_bp_mc_bug061.cnf 73.12 88673
Instances/backbones/misc/9vliw_bp_mc_bug062.cnf 87.20 92238
Instances/backbones/misc/9vliw_bp_mc_bug063.cnf 90.68 92101
Instances/backbones/misc/9vliw_bp_mc_bug064.cnf 80.93 94758
Instances/backbones/misc/9vliw_bp_mc_bug065.cnf 95.88 95079
Instances/backbones/misc/9vliw_bp_mc_bug066.cnf 78.75 95020
Instances/backbones/misc/9vliw_bp_mc_bug067.cnf 1248.05 91311
Instances/backbones/misc/9vliw_bp_mc_bug068.cnf 95.57 92183
Instances/backbones/misc/9vliw_bp_mc_bug069.cnf 90.20 91483
Instances/backbones/misc/9vliw_bp_mc_bug070.cnf 85.52 94178
Instances/backbones/misc/9vliw_bp_mc_bug071.cnf 70.35 95419
Instances/backbones/misc/9vliw_bp_mc_bug072.cnf 66.89 95628
Instances/backbones/misc/9vliw_bp_mc_bug073.cnf 134.84 112002
Instances/backbones/misc/9vliw_bp_mc_bug074.cnf 0.00 0
Instances/backbones/misc/9vliw_bp_mc_bug075.cnf 70.08 95837
Instances/backbones/misc/9vliw_bp_mc_bug076.cnf 81.69 94114
Instances/backbones/misc/9vliw_bp_mc_bug077.cnf 84.16 91257
Instances/backbones/misc/9vliw_bp_mc_bug078.cnf 82.88 94265
Instances/backbones/misc/9vliw_bp_mc_bug079.cnf 108.40 94199
Instances/backbones/misc/9vliw_bp_mc_bug080.cnf 122.07 92031
Instances/backbones/misc/9vliw_bp_mc_bug081.cnf 141.40 91860
Instances/backbones/misc/9vliw_bp_mc_bug082.cnf 80.93 94041
Instances/backbones/misc/9vliw_bp_mc_bug083.cnf 198.78 91824
Instances/backbones/misc/9vliw_bp_mc_bug084.cnf 91.12 91899
Instances/backbones/misc/9vliw_bp_mc_bug085.cnf 64.94 93995
Instances/backbones/misc/9vliw_bp_mc_bug086.cnf 98.10 93638
Instances/backbones/misc/9vliw_bp_mc_bug087.cnf 117.55 90531
Instances/backbones/misc/9vliw_bp_mc_bug088.cnf 91.42 89827
Instances/backbones/misc/9vliw_bp_mc_bug089.cnf 95.78 98194
Instances/backbones/misc/9vliw_bp_mc_bug090.cnf 91.05 97955
Instances/backbones/misc/9vliw_bp_mc_bug091.cnf 121.34 91703
Instances/backbones/misc/9vliw_bp_mc_bug092.cnf 75.15 96206
Instances/backbones/misc/9vliw_bp_mc_bug093.cnf 87.75 94735
Instances/backbones/misc/9vliw_bp_mc_bug094.cnf 96.21 93774
Instances/backbones/misc/9vliw_bp_mc_bug095.cnf 84.06 95253
Instances/backbones/misc/9vliw_bp_mc_bug096.cnf 624.66 112639
Instances/backbones/misc/9vliw_bp_mc_bug097.cnf 131.94 92831
Instances/backbones/misc/9vliw_bp_mc_bug098.cnf 78.72 94753
Instances/backbones/misc/9vliw_bp_mc_bug099.cnf 69.24 94923
Instances/backbones/misc/9vliw_bp_mc_bug100.cnf 82.81 94516
Instances/backbones/misc/a328test0003.cnf 0.00 18
Instances/backbones/misc/a405test0019.cnf 0.00 14
Instances/backbones/misc/a417test0013.cnf 0.00 19
Instances/backbones/misc/a426test0049.cnf 0.00 21
Instances/backbones/misc/a435test0039.cnf 0.00 45
Instances/backbones/misc/a479test0010.cnf 0.00 15
Instances/backbones/misc/a484test0017.cnf 0.00 14
Instances/backbones/misc/a503test0089.cnf 0.00 53
Instances/backbones/misc/a53test0002.cnf 0.00 13
Instances/backbones/misc/a58test0007.cnf 0.00 11
Instances/backbones/misc/a600test0040.cnf 0.00 4
Instances/backbones/misc/a620test0100.cnf 0.00 16
Instances/backbones/misc/a621test0086.cnf 0.00 59
Instances/backbones/misc/a635test0032.cnf 0.00 19
Instances/backbones/misc/a638test0043.cnf 0.00 138
Instances/backbones/misc/a639test0017.cnf 0.00 12
Instances/backbones/misc/a648test0099.cnf 0.00 10
Instances/backbones/misc/a695test0015.cnf 0.00 12
Instances/backbones/misc/abp4p2ff.cnf 0.87 9376
Instances/backbones/misc/abp4p2tt.cnf 0.86 9479
Instances/backbones/misc/abp4pold.cnf 0.65 9231
Instances/backbones/misc/abp4ptimo.cnf 2.22 10059
Instances/backbones/misc/abp4ptimoneg.cnf 11.48 10059
Instances/backbones/misc/b188test0002.cnf 0.00 2
Instances/backbones/misc/BBB-32.cnf 20.28 149
Instances/backbones/misc/bc57sensorsp0.cnf 24.42 105025
Instances/backbones/misc/bc57sensorsp0neg.cnf 29.79 105027
Instances/backbones/misc/bc57sensorsp1.cnf 28.82 118102
Instances/backbones/misc/bc57sensorsp1neg.cnf 36.69 118115
Instances/backbones/misc/bc57sensorsp2.cnf 29.57 118622
Instances/backbones/misc/bc57sensorsp2neg.cnf 29.74 118632
Instances/backbones/misc/bc57sensorsp3.cnf 28.27 112276
Instances/backbones/misc/bgpd_bgpd_vc76751.cnf 1157.54 21341
Instances/backbones/misc/bin_eventlogadm_vc330966.cnf 1800 0
Instances/backbones/misc/bin_eventlogadm_vc331024.cnf 74.13 20516
Instances/backbones/misc/bin_eventlogadm_vc331060.cnf 354.20 21936
Instances/backbones/misc/bin_eventlogadm_vc331076.cnf 201.98 21552
Instances/backbones/misc/bin_eventlogadm_vc331097.cnf 229.05 27450
Instances/backbones/misc/bin_eventlogadm_vc331131.cnf 349.36 31933
Instances/backbones/misc/bin_eventlogadm_vc331146.cnf 1800 0
Instances/backbones/misc/bin_eventlogadm_vc331151.cnf 1800 0
Instances/backbones/misc/bin_eventlogadm_vc331172.cnf 339.03 23383
Instances/backbones/misc/bin_eventlogadm_vc331176.cnf 1504.96 53221
Instances/backbones/misc/bin_eventlogadm_vc331178.cnf 1800 0
Instances/backbones/misc/bin_eventlogadm_vc331182.cnf 1800 0
Instances/backbones/misc/bin_eventlogadm_vc331200.cnf 1800 0
Instances/backbones/misc/bin_eventlogadm_vc331229.cnf 1800 0
Instances/backbones/misc/bin_eventlogadm_vc331231.cnf 1800 0
Instances/backbones/misc/bin_eventlogadm_vc331237.cnf 1800 0
Instances/backbones/misc/bin_eventlogadm_vc331238.cnf 1800 0
Instances/backbones/misc/bin_eventlogadm_vc331240.cnf 1800 0
Instances/backbones/misc/bin_eventlogadm_vc331242.cnf 1800 0
Instances/backbones/misc/bin_eventlogadm_vc344391.cnf 171.85 26693
Instances/backbones/misc/bin_eventlogadm_vc344889.cnf 237.29 29354
Instances/backbones/misc/bin_eventlogadm_vc345391.cnf 220.66 27307
Instances/backbones/misc/bin_eventlogadm_vc351331.cnf 23.15 12838
Instances/backbones/misc/bin_eventlogadm_vc351348.cnf 30.91 11248
Instances/backbones/misc/bin_eventlogadm_vc351369.cnf 1800 0
Instances/backbones/misc/bin_eventlogadm_vc351370.cnf 1800 0
Instances/backbones/misc/bin_eventlogadm_vc351382.cnf 1800 0
Instances/backbones/misc/bin_eventlogadm_vc352369.cnf 1517.98 25303
Instances/backbones/misc/bin_eventlogadm_vc352370.cnf 1800 0
Instances/backbones/misc/bin_eventlogadm_vc352382.cnf 1800 0
Instances/backbones/misc/bin_eventlogadm_vc352870.cnf 1800 0
Instances/backbones/misc/bin_eventlogadm_vc352871.cnf 1800 0
Instances/backbones/misc/bin_eventlogadm_vc352875.cnf 1666.38 28267
Instances/backbones/misc/bin_eventlogadm_vc352878.cnf 1044.39 25005
Instances/backbones/misc/bin_eventlogadm_vc352879.cnf 1800 0
Instances/backbones/misc/bin_eventlogadm_vc352888.cnf 566.86 20624
Instances/backbones/misc/bin_eventlogadm_vc352893.cnf 1800 0
Instances/backbones/misc/bin_libmsrpc_vc1225268.cnf 67.84 21181
Instances/backbones/misc/bin_libmsrpc_vc1225283.cnf 336.22 23532
Instances/backbones/misc/bin_libmsrpc_vc1225285.cnf 253.14 26206
Instances/backbones/misc/bin_libmsrpc_vc1225315.cnf 1800 0
Instances/backbones/misc/bin_libmsrpc_vc1225336.cnf 242.09 32123
Instances/backbones/misc/bin_libmsrpc_vc1225377.cnf 693.47 39901
Instances/backbones/misc/bin_libmsrpc_vc1225394.cnf 367.15 35015
Instances/backbones/misc/bin_libmsrpc_vc1225650.cnf 38.27 15277
Instances/backbones/misc/bin_libmsrpc_vc1225800.cnf 1512.84 23609
Instances/backbones/misc/bin_libmsrpc_vc1225807.cnf 92.76 23285
Instances/backbones/misc/bin_libmsrpc_vc1225809.cnf 1275.69 26711
Instances/backbones/misc/bin_libmsrpc_vc1225815.cnf 455.34 22890
Instances/backbones/misc/bin_libmsrpc_vc1225846.cnf 432.33 37184
Instances/backbones/misc/bin_libmsrpc_vc1225851.cnf 420.21 37680
Instances/backbones/misc/bin_libmsrpc_vc1225852.cnf 897.98 37692
Instances/backbones/misc/bin_libmsrpc_vc1225857.cnf 602.09 38090
Instances/backbones/misc/bin_libmsrpc_vc1225881.cnf 396.50 39990
Instances/backbones/misc/bin_libmsrpc_vc1225882.cnf 613.18 39142
Instances/backbones/misc/bin_libmsrpc_vc1225901.cnf 446.94 39806
Instances/backbones/misc/bin_libmsrpc_vc1225903.cnf 641.75 38524
Instances/backbones/misc/bin_libmsrpc_vc1225908.cnf 401.64 37535
Instances/backbones/misc/bin_libmsrpc_vc1228427.cnf 193.01 20531
Instances/backbones/misc/bin_libmsrpc_vc1228474.cnf 514.94 27482
Instances/backbones/misc/bin_libmsrpc_vc1228487.cnf 1800 0
Instances/backbones/misc/bin_libmsrpc_vc1228492.cnf 640.86 21120
Instances/backbones/misc/bin_libmsrpc_vc1228505.cnf 1584.40 40219
Instances/backbones/misc/bin_libmsrpc_vc1228552.cnf 538.50 37437
Instances/backbones/misc/bin_libmsrpc_vc1232007.cnf 77.30 20700
Instances/backbones/misc/bin_libmsrpc_vc1232052.cnf 165.53 23546
Instances/backbones/misc/bin_libmsrpc_vc1232105.cnf 259.73 26032
Instances/backbones/misc/bin_libmsrpc_vc1232133.cnf 134.29 25078
Instances/backbones/misc/bin_libmsrpc_vc1232135.cnf 177.20 25881
Instances/backbones/misc/bin_libsmbclient_vc1225138.cnf 45.98 16922
Instances/backbones/misc/bin_libsmbclient_vc1225140.cnf 53.82 17116
Instances/backbones/misc/bin_libsmbclient_vc1225267.cnf 1797.94 38139
Instances/backbones/misc/bin_libsmbclient_vc1225268.cnf 513.65 38869
Instances/backbones/misc/bin_libsmbclient_vc1225272.cnf 916.78 33325
Instances/backbones/misc/bin_libsmbclient_vc1225278.cnf 595.40 44141
Instances/backbones/misc/bin_libsmbclient_vc1225698.cnf 97.11 21150
Instances/backbones/misc/bin_libsmbclient_vc1225727.cnf 856.98 26121
Instances/backbones/misc/bin_libsmbclient_vc1225732.cnf 327.16 24031
Instances/backbones/misc/bin_libsmbclient_vc1225748.cnf 1072.92 23489
Instances/backbones/misc/bin_libsmbclient_vc1225761.cnf 486.39 38472
Instances/backbones/misc/bin_libsmbclient_vc1225765.cnf 894.06 40572
Instances/backbones/misc/bin_libsmbclient_vc1225766.cnf 588.57 41016
Instances/backbones/misc/bin_libsmbclient_vc1225781.cnf 1800 0
Instances/backbones/misc/bin_libsmbclient_vc1225783.cnf 476.11 37738
Instances/backbones/misc/bin_libsmbclient_vc1225822.cnf 638.36 38700
Instances/backbones/misc/bin_libsmbclient_vc1228450.cnf 541.03 37773
Instances/backbones/misc/bin_libsmbclient_vc1228454.cnf 1800 0
Instances/backbones/misc/bin_libsmbclient_vc1228490.cnf 407.87 38777
Instances/backbones/misc/bin_libsmbclient_vc1228503.cnf 277.59 38283
Instances/backbones/misc/bin_libsmbsharemodes_vc4232.cnf 20.80 9197
Instances/backbones/misc/bin_libsmbsharemodes_vc4294.cnf 15.29 9101
Instances/backbones/misc/bin_libsmbsharemodes_vc4311.cnf 116.99 26156
Instances/backbones/misc/bin_libsmbsharemodes_vc4312.cnf 280.29 28342
Instances/backbones/misc/bin_libsmbsharemodes_vc4326.cnf 1321.17 27397
Instances/backbones/misc/bin_libsmbsharemodes_vc4332.cnf 1800 0
Instances/backbones/misc/bin_libsmbsharemodes_vc4760.cnf 24.23 9270
Instances/backbones/misc/bin_libsmbsharemodes_vc4796.cnf 31.42 12535
Instances/backbones/misc/bin_libsmbsharemodes_vc4816.cnf 557.05 25837
Instances/backbones/misc/bin_libsmbsharemodes_vc4828.cnf 1124.50 25434
Instances/backbones/misc/bin_libsmbsharemodes_vc4830.cnf 1545.88 27117
Instances/backbones/misc/bin_libsmbsharemodes_vc4839.cnf 1301.73 26124
Instances/backbones/misc/bin_libsmbsharemodes_vc5331.cnf 1800 0
Instances/backbones/misc/bin_libsmbsharemodes_vc5338.cnf 1494.34 21725
Instances/backbones/misc/bin_libsmbsharemodes_vc5727.cnf 97.50 11612
Instances/backbones/misc/bin_libsmbsharemodes_vc5738.cnf 21.58 13632
Instances/backbones/misc/bin_libsmbsharemodes_vc5742.cnf 240.23 17216
Instances/backbones/misc/bin_libsmbsharemodes_vc5756.cnf 1800 0
Instances/backbones/misc/bin_libsmbsharemodes_vc5815.cnf 554.24 11172
Instances/backbones/misc/bin_libsmbsharemodes_vc5845.cnf 16.68 11091
Instances/backbones/misc/bin_libsmbsharemodes_vc6095.cnf 75.90 19506
Instances/backbones/misc/bin_libsmbsharemodes_vc6099.cnf 55.33 18687
Instances/backbones/misc/bin_libsmbsharemodes_vc6139.cnf 121.63 19147
Instances/backbones/misc/bin_libsmbsharemodes_vc6156.cnf 186.35 24774
Instances/backbones/misc/bin_libsmbsharemodes_vc6188.cnf 233.42 28124
Instances/backbones/misc/bin_libsmbsharemodes_vc6199.cnf 246.33 28657
Instances/backbones/misc/bin_libsmbsharemodes_vc6207.cnf 215.72 27899
Instances/backbones/misc/bin_libsmbsharemodes_vc6221.cnf 262.53 28388
Instances/backbones/misc/bin_libsmbsharemodes_vc6222.cnf 149.32 27088
Instances/backbones/misc/bin_libsmbsharemodes_vc6259.cnf 697.06 34882
Instances/backbones/misc/bin_libsmbsharemodes_vc6267.cnf 386.20 26085
Instances/backbones/misc/bin_libsmbsharemodes_vc6275.cnf 46.91 49512
Instances/backbones/misc/bin_libsmbsharemodes_vc6313.cnf 1800 0
Instances/backbones/misc/bin_libsmbsharemodes_vc6341.cnf 1800 0
Instances/backbones/misc/bin_libsmbsharemodes_vc7098.cnf 255.97 21548
Instances/backbones/misc/bin_libsmbsharemodes_vc7107.cnf 256.33 23534
Instances/backbones/misc/bin_libsmbsharemodes_vc7120.cnf 394.24 25267
Instances/backbones/misc/bin_libsmbsharemodes_vc7121.cnf 130.55 25721
Instances/backbones/misc/bin_libsmbsharemodes_vc7139.cnf 201.07 23478
Instances/backbones/misc/bin_libsmbsharemodes_vc7281.cnf 38.86 15018
Instances/backbones/misc/bin_libsmbsharemodes_vc7676.cnf 319.65 29413
Instances/backbones/misc/bin_libsmbsharemodes_vc7682.cnf 252.07 30777
Instances/backbones/misc/bin_libsmbsharemodes_vc7693.cnf 394.99 38320
Instances/backbones/misc/bin_libsmbsharemodes_vc7696.cnf 390.74 39985
Instances/backbones/misc/bin_libsmbsharemodes_vc7718.cnf 184.35 28123
Instances/backbones/misc/bin_libsmbsharemodes_vc7721.cnf 455.00 32479
Instances/backbones/misc/bj08amba2g4f3.cnf 2.43 19356
Instances/backbones/misc/bj08autg3f3.cnf 0.00 370
Instances/backbones/misc/bj08vendingcycle.cnf 0.00 188
Instances/backbones/misc/brpp1.cnf 0.00 1578
Instances/backbones/misc/brpp1neg.cnf 0.00 881
Instances/backbones/misc/brpptimo.cnf 0.00 1304
Instances/backbones/misc/brpptimoneg.cnf 0.00 709
Instances/backbones/misc/brpptimonegnv.cnf 0.00 1395
Instances/backbones/misc/convert-jpg2gif-query-1139.cnf 0.01 2357
Instances/backbones/misc/convert-jpg2gif-query-1157.cnf 0.00 2366
Instances/backbones/misc/convert-jpg2gif-query-1163.cnf 0.00 2367
Instances/backbones/misc/convert-jpg2gif-query-1167.cnf 0.01 2367
Instances/backbones/misc/convert-jpg2gif-query-1172.cnf 0.00 2369
Instances/backbones/misc/convert-jpg2gif-query-1184.cnf 904.07 2760
Instances/backbones/misc/convert-jpg2gif-query-1188.cnf 15.00 2693
Instances/backbones/misc/convert-jpg2gif-query-1194.cnf 29.76 2823
Instances/backbones/misc/convert-jpg2gif-query-1198.cnf 14.07 2919
Instances/backbones/misc/convert-jpg2gif-query-1203.cnf 17.97 3045
Instances/backbones/misc/convert-jpg2gif-query-1363.cnf 376.01 4721
Instances/backbones/misc/convert-jpg2gif-query-1416.cnf 306.89 4770
Instances/backbones/misc/convert-jpg2gif-query-1423.cnf 360.87 4772
Instances/backbones/misc/convert-jpg2gif-query-1438.cnf 193.88 4778
Instances/backbones/misc/convert-jpg2gif-query-1444.cnf 560.10 4808
Instances/backbones/misc/convert-jpg2gif-query-1470.cnf 1800 0
Instances/backbones/misc/convert-jpg2gif-query-1503.cnf 1800 0
Instances/backbones/misc/convert-jpg2gif-query-1533.cnf 1800 0
Instances/backbones/misc/convert-jpg2gif-query-1538.cnf 1800 0
Instances/backbones/misc/convert-jpg2gif-query-1553.cnf 1800 0
Instances/backbones/misc/convert-jpg2gif-query-1595.cnf 1800 0
Instances/backbones/misc/convert-jpg2gif-query-1606.cnf 1800 0
Instances/backbones/misc/convert-jpg2gif-query-1611.cnf 1800 0
Instances/backbones/misc/convert-jpg2gif-query-1614.cnf 1800 0
Instances/backbones/misc/convert-jpg2gif-query-901.cnf 0.01 559
Instances/backbones/misc/counterp0.cnf 0.00 287
Instances/backbones/misc/counterp0neg.cnf 0.00 290
Instances/backbones/misc/csmacdp0.cnf 0.28 16162
Instances/backbones/misc/csmacdp0neg.cnf 0.27 16162
Instances/backbones/misc/csmacdp2.cnf 0.26 16459
Instances/backbones/misc/csmacdp2neg.cnf 0.24 16456
Instances/backbones/misc/cvs_vc105322.cnf 13.82 25036
Instances/backbones/misc/cvs_vc105323.cnf 14.28 25036
Instances/backbones/misc/cvs_vc105439.cnf 12.90 25386
Instances/backbones/misc/dme3p1.cnf 0.00 743
Instances/backbones/misc/dme3p1neg.cnf 0.00 551
Instances/backbones/misc/dme3ptimo.cnf 0.00 668
Instances/backbones/misc/dme3ptimoneg.cnf 0.00 482
Instances/backbones/misc/dme3ptimonegnv.cnf 0.00 715
Instances/backbones/misc/dme4p1.cnf 0.00 952
Instances/backbones/misc/dme4p1neg.cnf 0.00 702
Instances/backbones/misc/dme4ptimo.cnf 0.00 877
Instances/backbones/misc/dme4ptimoneg.cnf 0.00 633
Instances/backbones/misc/dme4ptimonegnv.cnf 0.00 924
Instances/backbones/misc/dme5p1.cnf 0.00 1155
Instances/backbones/misc/dme5p1neg.cnf 0.00 849
Instances/backbones/misc/dme5ptimo.cnf 0.00 1080
Instances/backbones/misc/dme5ptimoneg.cnf 0.00 780
Instances/backbones/misc/dme5ptimonegnv.cnf 0.00 1127
Instances/backbones/misc/dme6p1.cnf 0.00 1358
Instances/backbones/misc/dme6p1neg.cnf 0.00 996
Instances/backbones/misc/dme6ptimo.cnf 0.00 1283
Instances/backbones/misc/dme6ptimoneg.cnf 0.00 927
Instances/backbones/misc/dme6ptimonegnv.cnf 0.00 1330
Instances/backbones/misc/dp_12_fsa-b5-p_simpl.cnf 0.00 952
Instances/backbones/misc/dp_12_fsa-b5-s_simpl.cnf 0.00 1315
Instances/backbones/misc/dp_12_fsa-b6-p_simpl.cnf 0.01 1368
Instances/backbones/misc/dp_12_fsa-b6-s_simpl.cnf 0.02 1605
Instances/backbones/misc/dp_12_fsa-b7-p_simpl.cnf 0.02 1631
Instances/backbones/misc/dp_12_fsa-b7-s_simpl.cnf 0.03 1895
Instances/backbones/misc/dp_12_fsa-b8-p_simpl.cnf 0.04 1921
Instances/backbones/misc/dp_12_fsa-b8-s_simpl.cnf 0.08 2185
Instances/backbones/misc/dp_12_fsa-b9-p_simpl.cnf 0.09 2211
Instances/backbones/misc/dp_12_fsa-b9-s_simpl.cnf 0.19 2475
Instances/backbones/misc/elevator_1-b4-s_simpl.cnf 0.00 653
Instances/backbones/misc/elevator_1-b5-s_simpl.cnf 0.00 952
Instances/backbones/misc/elevator_1-b6-s_simpl.cnf 0.00 1475
Instances/backbones/misc/elevator_2-b6-p_simpl.cnf 0.00 1004
Instances/backbones/misc/elevator_2-b6-s_simpl.cnf 0.00 1958
Instances/backbones/misc/elevator_2-b7-p_simpl.cnf 0.00 1842
Instances/backbones/misc/elevator_2-b7-s_simpl.cnf 0.03 2947
Instances/backbones/misc/elevator_2-b8-s_simpl.cnf 0.06 4539
Instances/backbones/misc/fig5_phx.cnf 11.86 9625
Instances/backbones/misc/fig6_phx.cnf 2.92 1534
Instances/backbones/misc/icbrtinvalidvc.cnf 12.48 10373
Instances/backbones/misc/innd_innd_vc33162.cnf 1800 0
Instances/backbones/misc/innd_innd_vc33337.cnf 1800 0
Instances/backbones/misc/innd_innd_vc33554.cnf 1800 0
Instances/backbones/misc/innd_innd_vc33562.cnf 1800 0
Instances/backbones/misc/innfeed_innfeed_vc36443.cnf 1800 0
Instances/backbones/misc/innfeed_innfeed_vc36634.cnf 1800 0
Instances/backbones/misc/innfeed_innfeed_vc37046.cnf 1800 0
Instances/backbones/misc/innfeed_innfeed_vc37224.cnf 1800 0
Instances/backbones/misc/innfeed_innfeed_vc37241.cnf 1800 0
Instances/backbones/misc/irstdme4.cnf 1800 0
Instances/backbones/misc/irstdme5.cnf 1800 0
Instances/backbones/misc/irstdme6.cnf 1800 0
Instances/backbones/misc/isqrtinvalidvc.cnf 342.22 5454
Instances/backbones/misc/isqrtnoifinvalidvc.cnf 496.73 5758
Instances/backbones/misc/kenflashp02.cnf 0.00 3128
Instances/backbones/misc/kenflashp12.cnf 0.00 3653
Instances/backbones/misc/mccarthy91_phx.cnf 75.60 26655
Instances/backbones/misc/merge_phx.cnf 0.10 19021
Instances/backbones/misc/mmgt_2_fsa-b6-p_simpl.cnf 0.00 1014
Instances/backbones/misc/mmgt_2_fsa-b6-s_simpl.cnf 0.00 1840
Instances/backbones/misc/mmgt_2_fsa-b7-p_simpl.cnf 0.00 1417
Instances/backbones/misc/mmgt_2_fsa-b7-s_simpl.cnf 0.02 2629
Instances/backbones/misc/mmgt_2_fsa-b8-p_simpl.cnf 0.00 1997
Instances/backbones/misc/mmgt_2_fsa-b8-s_simpl.cnf 0.06 3596
Instances/backbones/misc/mmgt_3_fsa-b7-p_simpl.cnf 0.00 2158
Instances/backbones/misc/mmgt_3_fsa-b7-s_simpl.cnf 0.08 3996
Instances/backbones/misc/mmgt_3_fsa-b9-p_simpl.cnf 0.04 3842
Instances/backbones/misc/mutexp0.cnf 0.00 291
Instances/backbones/misc/mutexp0neg.cnf 0.00 291
Instances/backbones/misc/neclaftp3001.cnf 2.63 167492
Instances/backbones/misc/neclaftp3002.cnf 9.32 214105
Instances/backbones/misc/nnrpd_nnrpd_vc20427.cnf 1800 0
Instances/backbones/misc/nnrpd_nnrpd_vc21212.cnf 1800 0
Instances/backbones/misc/nnrpd_nnrpd_vc21215.cnf 1800 0
Instances/backbones/misc/nnrpd_nnrpd_vc21229.cnf 1800 0
Instances/backbones/misc/nnrpd_nnrpd_vc21243.cnf 1800 0
Instances/backbones/misc/nnrpd_nnrpd_vc21424.cnf 1800 0
Instances/backbones/misc/nnrpd_nnrpd_vc21439.cnf 1800 0
Instances/backbones/misc/nnrpd_nnrpd_vc21452.cnf 1800 0
Instances/backbones/misc/nnrpd_nnrpd_vc21650.cnf 1800 0
Instances/backbones/misc/nusmvtcasp1.cnf 0.88 11340
Instances/backbones/misc/nusmvtcasp4.cnf 1.97 18724
Instances/backbones/misc/nusmvtcasp5.cnf 8.68 33312
Instances/backbones/misc/nusmvtcasp6.cnf 3.62 18483
Instances/backbones/misc/nusmvtcastp1.cnf 0.85 11584
Instances/backbones/misc/nusmvtcastp4.cnf 1.88 19204
Instances/backbones/misc/nusmvtcastp5.cnf 7.91 34323
Instances/backbones/misc/nusmvtcastp6.cnf 3.79 19081
Instances/backbones/misc/parity12-35_simpl.cnf 0.02 526
Instances/backbones/misc/parity12-47_simpl.cnf 0.02 246
Instances/backbones/misc/parity12-68_simpl.cnf 0.03 553
Instances/backbones/misc/parity12-98_simpl.cnf 0.01 517
Instances/backbones/misc/parity16-10_simpl.cnf 1.16 674
Instances/backbones/misc/parity16-1_simpl.cnf 1.25 924
Instances/backbones/misc/parity16-2_simpl.cnf 0.88 911
Instances/backbones/misc/parity16-3_simpl.cnf 1.00 666
Instances/backbones/misc/parity16-4_simpl.cnf 0.89 483
Instances/backbones/misc/parity16-5_simpl.cnf 0.54 586
Instances/backbones/misc/parity16-6_simpl.cnf 0.92 440
Instances/backbones/misc/parity16-7_simpl.cnf 0.69 882
Instances/backbones/misc/parity16-8_simpl.cnf 0.72 605
Instances/backbones/misc/parity16-9_simpl.cnf 1.58 627
Instances/backbones/misc/parity32-1_simpl.cnf 1800.05 0
Instances/backbones/misc/parity32-2_simpl.cnf 1800.02 0
Instances/backbones/misc/parity32-3_simpl.cnf 1800.06 0
Instances/backbones/misc/parity32-4_simpl.cnf 1800.02 0
Instances/backbones/misc/parity32-5_simpl.cnf 1799.76 0
Instances/backbones/misc/parity4-1_simpl.cnf 0.00 48
Instances/backbones/misc/parity8-27_simpl.cnf 0.00 226
Instances/backbones/misc/pcip1.cnf 0.00 1124
Instances/backbones/misc/pcip1neg.cnf 0.00 744
Instances/backbones/misc/pcipFtimo.cnf 0.00 1048
Instances/backbones/misc/pciptimo.cnf 0.00 1020
Instances/backbones/misc/pciptimoneg.cnf 0.00 639
Instances/backbones/misc/pdtvisbpb0.cnf 0.00 532
Instances/backbones/misc/pdtviscoherence0.cnf 0.00 1025
Instances/backbones/misc/pdtviscoherence1.cnf 0.36 10599
Instances/backbones/misc/pdtviscoherence2.cnf 0.00 1151
Instances/backbones/misc/pdtvisretherrtf4.cnf 0.69 20910
Instances/backbones/misc/pdtvissoap0.cnf 0.00 14
Instances/backbones/misc/problem_2.cnf 1799.92 0
Instances/backbones/misc/problem_24.cnf 1800 0
Instances/backbones/misc/problem_9.cnf 1.14 2517
Instances/backbones/misc/prodcellp0.cnf 3.72 24496
Instances/backbones/misc/prodcellp0neg.cnf 4.00 24498
Instances/backbones/misc/prodcellp1.cnf 6.89 36801
Instances/backbones/misc/prodcellp1neg.cnf 9.55 36803
Instances/backbones/misc/prodcellp2.cnf 7.50 36801
Instances/backbones/misc/prodcellp2neg.cnf 8.16 36803
Instances/backbones/misc/prodcellp3.cnf 10.13 31281
Instances/backbones/misc/prodcellp3neg.cnf 12.53 31286
Instances/backbones/misc/prodcellp4.cnf 14.23 34098
Instances/backbones/misc/prodcellp4neg.cnf 13.00 34109
Instances/backbones/misc/prodconsp0.cnf 0.87 10322
Instances/backbones/misc/prodconsp0neg.cnf 0.87 10329
Instances/backbones/misc/prodconsp1.cnf 1.04 10331
Instances/backbones/misc/prodconsp1negnv.cnf 1.10 10727
Instances/backbones/misc/prodconsp5.cnf 1.74 10410
Instances/backbones/misc/prodconsp5neg.cnf 1.20 10410
Instances/backbones/misc/prodconspold1.cnf 1.02 9515
Instances/backbones/misc/prodconspold3.cnf 1.00 9538
Instances/backbones/misc/prodconspold4.cnf 1.08 9256
Instances/backbones/misc/rfunit_flat-64.cnf 75.45 148
Instances/backbones/misc/ringp0.cnf 0.01 483
Instances/backbones/misc/ringp0neg.cnf 0.01 488
Instances/backbones/misc/s-40-50-bv.cnf 66.63 38590
Instances/backbones/misc/servers_slapd_a_vc149572.cnf 0.00 9
Instances/backbones/misc/servers_slapd_a_vc149923.cnf 1800 0
Instances/backbones/misc/shortp0.cnf 0.00 84
Instances/backbones/misc/shortp0neg.cnf 0.00 72
Instances/backbones/misc/simplePostAndPre_phx.cnf 6.12 15814
Instances/backbones/misc/smulov4bw0256.cnf 1800 0
Instances/backbones/misc/smulov4bw0384.cnf 1800 0
Instances/backbones/misc/speed_1_fsa-b10-p_simpl.cnf 0.02 1248
Instances/backbones/misc/speed_1_fsa-b10-s_simpl.cnf 0.10 1363
Instances/backbones/misc/speed_1_fsa-b12-p_simpl.cnf 0.06 1661
Instances/backbones/misc/speed_1_fsa-b12-s_simpl.cnf 0.34 1782
Instances/backbones/misc/speed_1_fsa-b13-p_simpl.cnf 0.09 1872
Instances/backbones/misc/speed_1_fsa-b13-s_simpl.cnf 0.45 1993
Instances/backbones/misc/speed_1_fsa-b14-p_simpl.cnf 0.16 2083
Instances/backbones/misc/speed_1_fsa-b14-s_simpl.cnf 0.85 2204
Instances/backbones/misc/speed_1_fsa-b15-s_simpl.cnf 2.16 2417
Instances/backbones/misc/speed_1_fsa-b6-p_simpl.cnf 0.00 449
Instances/backbones/misc/speed_1_fsa-b6-s_simpl.cnf 0.00 555
Instances/backbones/misc/speed_1_fsa-b7-p_simpl.cnf 0.00 649
Instances/backbones/misc/speed_1_fsa-b7-s_simpl.cnf 0.00 754
Instances/backbones/misc/speed_1_fsa-b8-p_simpl.cnf 0.00 847
Instances/backbones/misc/speed_1_fsa-b8-s_simpl.cnf 0.01 956
Instances/backbones/misc/speed_1_fsa-b9-p_simpl.cnf 0.01 1049
Instances/backbones/misc/speed_1_fsa-b9-s_simpl.cnf 0.02 1155
Instances/backbones/misc/src_wget_vc17891.cnf 1800 0
Instances/backbones/misc/src_wget_vc17911.cnf 1800 0
Instances/backbones/misc/srg5ptimo.cnf 0.00 297
Instances/backbones/misc/srg5ptimoneg.cnf 0.00 212
Instances/backbones/misc/srg5ptimonegnv.cnf 0.00 299
Instances/backbones/misc/testcase15_stp.cnf 512.30 523563
Instances/backbones/misc/texasifetch1p5.cnf 0.00 577
Instances/backbones/misc/texasparsesysp1.cnf 0.01 2510
Instances/backbones/misc/texasparsesysp3.cnf 0.00 1796
Instances/backbones/misc/texasPImainp02.cnf 0.00 62
Instances/backbones/misc/texasPImainp08.cnf 0.00 191
Instances/backbones/misc/texastwoprocp1.cnf 0.00 168
Instances/backbones/misc/texastwoprocp2.cnf 0.00 832
Instances/backbones/misc/texastwoprocp5.cnf 0.00 198
Instances/backbones/misc/visbakery.cnf 1800 0
Instances/backbones/misc/viscoherencep1.cnf 0.01 1981
Instances/backbones/misc/viscoherencep5.cnf 0.01 2510
Instances/backbones/misc/viseisenberg.cnf 0.53 10215
Instances/backbones/misc/viselevatorp2.cnf 0.00 270
Instances/backbones/misc/visprodcellp07.cnf 0.00 512
Instances/backbones/misc/VS3-benchmark-S1.cnf 1800 0
